01REMESSA01COBRANCA       719600141795        NUTRACORPORE COMERCIAL LTDA ME341BANCO ITAU SA  050117                                                                                                                                                                                                                                                                                                      000001
10218572130000164719600141795    00003                        000023530000000000000109                     I013         10011700000000205203410000001N050117810000000000000000000000000000000000000000000000000000000000000100006641187551Vinicius Oliveira                       Avenida Orlando Gomes, 1558 Prox ao SenaPiatã      41650010Salvador       BA                                  00000005 000002
5Vinicardoliveira@hotmail.com                                                                                            0000000000000000                                                    00000000                                                                                                                                                                                                     000003
9                                                                                                                                                                                                                                                                                                                                                                                                         000004
