01REMESSA01COBRANCA       719600141795        NUTRACORPORE COMERCIAL LTDA ME341BANCO ITAU SA  070117                                                                                                                                                                                                                                                                                                      000001
10218572130000164719600141795    00003                        000023600000000000000109                     I013         12011700000000152103410000001N070117810000000000000000000000000000000000000000000000000000000000000100036704217851Suellen maria  Ramos ferreira           travessa fragoso, 15 Ap 02              centro      12850000Bananal        SP                                  00000005 000002
5suellenlorao@hotmail.com                                                                                                0000000000000000                                                    00000000                                                                                                                                                                                                     000003
9                                                                                                                                                                                                                                                                                                                                                                                                         000004
