01REMESSA01COBRANCA       719600141795        NUTRACORPORE COMERCIAL LTDA ME341BANCO ITAU SA  120117                                                                                                                                                                                                                                                                                                      000001
10218572130000164719600141795    00003                        000023750000000000000109                     I013         17011700000000227163410000001N120117810000000000000000000000000000000000000000000000000000000000000100005524273736Victor Antonio Nascimento               Rua Antonieta Ana da Silva, 09 Quadra 02Vista Alegre24725290São Gonçalo  RJ                                  00000005 000002
5victoran_rj@hotmail.com                                                                                                 0000000000000000                                                    00000000                                                                                                                                                                                                     000003
9                                                                                                                                                                                                                                                                                                                                                                                                         000004
