01REMESSA01COBRANCA       719600141795        NUTRACORPORE COMERCIAL LTDA ME341BANCO ITAU SA  130117                                                                                                                                                                                                                                                                                                      000001
10218572130000164719600141795    00003                        000023780000000000000109                     I013         18011700000000144003410000001N130117100000000000000000000000000000000000000000000000000000000000000100000389014125Kariene Passos                          Quadra 1 Lote 40 Bloco B, 704 Edifício Setor Indust72445010Gama           DF                                  00000005 000002
5kariene.gama@gmail.com                                                                                                  0000000000000000                                                    00000000                                                                                                                                                                                                     000003
9                                                                                                                                                                                                                                                                                                                                                                                                         000004
