01REMESSA01COBRANCA       719600141795        NUTRACORPORE COMERCIAL LTDA ME341BANCO ITAU SA  230117                                                                                                                                                                                                                                                                                                      000001
10218572130000164719600141795    00003                        000024010000000000000109                     I013         28011700000000166503410000001N230117100000000000000000000000000000000000000000000000000000000000000100029952314884Marcos Cardia de Castro                 Horácio Dias Batista, 458              Vila Martins18701454Avaré         SP                                  00000005 000002
5marcosadinfinitum@outlook.com                                                                                           0000000000000000                                                    00000000                                                                                                                                                                                                     000003
9                                                                                                                                                                                                                                                                                                                                                                                                         000004
