01REMESSA01COBRANCA       719600141795        NUTRACORPORE COMERCIAL LTDA ME341BANCO ITAU SA  040217                                                                                                                                                                                                                                                                                                      000001
10218572130000164719600141795    00003                        000024500000000000000109                     I013         09021700000000160563410000001N040217100000000000000000000000000000000000000000000000000000000000000100001979686190Juliano Gomes dos Santos                Rua cabaçal, 419 Perto da creche       Cavalhada   78200000Cáceres       MT                                  00000005 000002
5Jugomessantos@hotmail.com                                                                                               0000000000000000                                                    00000000                                                                                                                                                                                                     000003
9                                                                                                                                                                                                                                                                                                                                                                                                         000004
