01REMESSA01COBRANCA       719600141795        NUTRACORPORE COMERCIAL LTDA ME341BANCO ITAU SA  060217                                                                                                                                                                                                                                                                                                      000001
10218572130000164719600141795    00003                        000024620000000000000109                     I013         11021700000000093223410000001N060217100000000000000000000000000000000000000000000000000000000000000100035160226800MARCIO BONADIA                          RUA MAJOR RUBENS VAZ, 560               CANTO DO FOR11700620PRAIA GRANDE   SP                                  00000005 000002
5marciobonadia@yahoo.com.br                                                                                              0000000000000000                                                    00000000                                                                                                                                                                                                     000003
9                                                                                                                                                                                                                                                                                                                                                                                                         000004
