01REMESSA01COBRANCA       719600141795        NUTRACORPORE COMERCIAL LTDA ME341BANCO ITAU SA  080217                                                                                                                                                                                                                                                                                                      000001
10218572130000164719600141795    00003                        000024680000000000000109                     I013         13021700000000102253410000001N080217100000000000000000000000000000000000000000000000000000000000000100032612853898EDUARDO GAMA                            Rua Francisco Lemos de Almeida, 3-16    vila lemos  17060520Bauru          SP                                  00000005 000002
5edu.gama84@gmail.com                                                                                                    0000000000000000                                                    00000000                                                                                                                                                                                                     000003
9                                                                                                                                                                                                                                                                                                                                                                                                         000004
