01REMESSA01COBRANCA       719600141795        NUTRACORPORE COMERCIAL LTDA ME341BANCO ITAU SA  170217                                                                                                                                                                                                                                                                                                      000001
10218572130000164719600141795    00003                        000025100000000000000109                     I013         22021700000000306003410000001N170217100000000000000000000000000000000000000000000000000000000000000100004309522106karolinne  luzia e silva                avenida felipe camarão , 1118 qd 22 lt goia I      74485320goiânia       GO                                  00000005 000002
5karolinneluziaesilva@gmail.com                                                                                          0000000000000000                                                    00000000                                                                                                                                                                                                     000003
9                                                                                                                                                                                                                                                                                                                                                                                                         000004
