01REMESSA01COBRANCA       719600141795        NUTRACORPORE COMERCIAL LTDA ME341BANCO ITAU SA  190217                                                                                                                                                                                                                                                                                                      000001
10218572130000164719600141795    00003                        000025190000000000000109                     I013         24021700000000104903410000001N190217100000000000000000000000000000000000000000000000000000000000000100011153404761amayra carreira                         rua do matoso, 104 apto 407 bl 1        praça da ba20270133rio de janeiro RJ                                  00000005 000002
5amayracarreira@yahoo.com.br                                                                                             0000000000000000                                                    00000000                                                                                                                                                                                                     000003
9                                                                                                                                                                                                                                                                                                                                                                                                         000004
