01REMESSA01COBRANCA       719600141795        NUTRACORPORE COMERCIAL LTDA ME341BANCO ITAU SA  190217                                                                                                                                                                                                                                                                                                      000001
10218572130000164719600141795    00003                        000025220000000000000109                     I013         24021700000000114163410000001N190217100000000000000000000000000000000000000000000000000000000000000100040380946858Raul  Avelino                           AV. Osmundo dos santos pelegrini, 1401 PRetiro      13211745Jundiai        SP                                  00000005 000002
5rahul.avelino@yahoo.com.br                                                                                              0000000000000000                                                    00000000                                                                                                                                                                                                     000003
9                                                                                                                                                                                                                                                                                                                                                                                                         000004
