01REMESSA01COBRANCA       719600141795        NUTRACORPORE COMERCIAL LTDA ME341BANCO ITAU SA  130317                                                                                                                                                                                                                                                                                                      000001
10218572130000164719600141795    00003                        000025920000000000000109                     I013         18031700000000165603410000001N130317100000000000000000000000000000000000000000000000000000000000000100041127538888VICTOR AUGUSTO VENTURA FONSECA          RUA SOLEMAR, 307                        SACOMA      04254010SÃO PAULO     SP                                  00000005 000002
5victor.augusto.va@gmail.com                                                                                             0000000000000000                                                    00000000                                                                                                                                                                                                     000003
9                                                                                                                                                                                                                                                                                                                                                                                                         000004
