01REMESSA01COBRANCA       719600141795        NUTRACORPORE COMERCIAL LTDA ME341BANCO ITAU SA  160317                                                                                                                                                                                                                                                                                                      000001
10218572130000164719600141795    00003                        000026060000000000000109                     I013         21031700000000472503410000001N160317100000000000000000000000000000000000000000000000000000000000000100010140630430edielson junior de luna                 travessa antonio aureliano de barro , 10centro      55460000cupira         PE                                  00000005 000002
5edielsonjuniorluna@outlook.com                                                                                          0000000000000000                                                    00000000                                                                                                                                                                                                     000003
9                                                                                                                                                                                                                                                                                                                                                                                                         000004
