01REMESSA01COBRANCA       719600141795        NUTRACORPORE COMERCIAL LTDA ME341BANCO ITAU SA  170317                                                                                                                                                                                                                                                                                                      000001
10218572130000164719600141795    00003                        000026090000000000000109                     I013         22031700000000189003410000001N170317100000000000000000000000000000000000000000000000000000000000000100080667422153Wesley  Ribeiro Olimpio                 Avenida Dona Melinha Qd 6 Lt 25 ResidencResidencial 74475344GOIANIA        GO                                  00000005 000002
5rubronegro55@hotmail.com                                                                                                0000000000000000                                                    00000000                                                                                                                                                                                                     000003
9                                                                                                                                                                                                                                                                                                                                                                                                         000004
