01REMESSA01COBRANCA       719600141795        NUTRACORPORE COMERCIAL LTDA ME341BANCO ITAU SA  240317                                                                                                                                                                                                                                                                                                      000001
10218572130000164719600141795    00003                        000026300000000000000109                     I013         29031700000000165603410000001N240317100000000000000000000000000000000000000000000000000000000000000100006315557813adriana lopes schneider                 rua tuim, 444 71                        moema       04514101são paulo     SP                                  00000005 000002
5adrianaschneider@hotmail.com                                                                                            0000000000000000                                                    00000000                                                                                                                                                                                                     000003
9                                                                                                                                                                                                                                                                                                                                                                                                         000004
