01REMESSA01COBRANCA       719600141795        NUTRACORPORE COMERCIAL LTDA ME341BANCO ITAU SA  260317                                                                                                                                                                                                                                                                                                      000001
10218572130000164719600141795    00003                        000026320000000000000109                     I013         31031700000000239403410000001N260317100000000000000000000000000000000000000000000000000000000000000100011053299419elisângela dos santos                  AV:pedro e paulo alves da rocha, 511    sâo miguel 55195536santa cruz do capibaribe PE                                  00000005 000002
5eliferreira24@outlook.com                                                                                               0000000000000000                                                    00000000                                                                                                                                                                                                     000003
9                                                                                                                                                                                                                                                                                                                                                                                                         000004
