01REMESSA01COBRANCA       719600141795        NUTRACORPORE COMERCIAL LTDA ME341BANCO ITAU SA  160417                                                                                                                                                                                                                                                                                                      000001
10218572130000164719600141795    00003                        000026960000000000000109                     I013         21041700000000163803410000001N160417100000000000000000000000000000000000000000000000000000000000000100013153688702Artur Emilio Rangel de Abreu Filho          Rua Hipólito sardinha, 446 casa        Parque presi28085007Campos dos GoytacazesRJ                                  00000005 000002
5artur_de_abreu@hotmail.com                                                                                              0000000000000000                                                    00000000                                                                                                                                                                                                     000003
9                                                                                                                                                                                                                                                                                                                                                                                                         000004
