01REMESSA01COBRANCA       719600141795        NUTRACORPORE COMERCIAL LTDA ME341BANCO ITAU SA  200417                                                                                                                                                                                                                                                                                                      000001
10218572130000164719600141795    00003                        000027150000000000000109                     I013         25041700000000180003410000001N200417100000000000000000000000000000000000000000000000000000000000000100002761600967Osterno Marcos Freire                   Rua dos Eucaliptos, 383                 Parigot de S87310480Campo Mourão  PR                                  00000005 000002
5techlogistica@gmail.com                                                                                                 0000000000000000                                                    00000000                                                                                                                                                                                                     000003
9                                                                                                                                                                                                                                                                                                                                                                                                         000004
