01REMESSA01COBRANCA       719600141795        NUTRACORPORE COMERCIAL LTDA ME341BANCO ITAU SA  200417                                                                                                                                                                                                                                                                                                      000001
10218572130000164719600141795    00003                        000027160000000000000109                     I013         25041700000000270003410000001N200417100000000000000000000000000000000000000000000000000000000000000100030259951811Adriana Vanni                           R. Ovídio Bradamante Toledo, 90 ap 403 Tubalina    38412002Uberlândia    MG                                  00000005 000002
5adrianavanni@gmail.com                                                                                                  0000000000000000                                                    00000000                                                                                                                                                                                                     000003
9                                                                                                                                                                                                                                                                                                                                                                                                         000004
