01REMESSA01COBRANCA       719600141795        NUTRACORPORE COMERCIAL LTDA ME341BANCO ITAU SA  270417                                                                                                                                                                                                                                                                                                      000001
10218572130000164719600141795    00003                        000027340000000000000109                     I013         02051700000000180003410000001N270417100000000000000000000000000000000000000000000000000000000000000100083796169015GUSTAVO SIMONATO                        r. dr. barros cassal, 625 201           bom fim     90035030porto alegre   RS                                  00000005 000002
5fagundess13@gmail.com                                                                                                   0000000000000000                                                    00000000                                                                                                                                                                                                     000003
9                                                                                                                                                                                                                                                                                                                                                                                                         000004
