01REMESSA01COBRANCA       719600141795        NUTRACORPORE COMERCIAL LTDA ME341BANCO ITAU SA  020517                                                                                                                                                                                                                                                                                                      000001
10218572130000164719600141795    00003                        000027480000000000000109                     I013         07051700000000225003410000001N020517100000000000000000000000000000000000000000000000000000000000000100026954732818Sérgio Moura                           Rua Pintassilgo, 426 Ap. 83             Moema       04514032São Paulo     SP                                  00000005 000002
5spmoura@yahoo.com                                                                                                       0000000000000000                                                    00000000                                                                                                                                                                                                     000003
9                                                                                                                                                                                                                                                                                                                                                                                                         000004
