01REMESSA01COBRANCA       719600141795        NUTRACORPORE COMERCIAL LTDA ME341BANCO ITAU SA  100517                                                                                                                                                                                                                                                                                                      000001
10218572130000164719600141795    00003                        000027610000000000000109                     I013         15051700000000153003410000001N100517100000000000000000000000000000000000000000000000000000000000000100005729232101Gabriel Dantas                          QNN 04 CONJUNTO J CASA 58, 58           Ceilândia  72220050Ceilândia Sul DF                                  00000005 000002
5vasco4752@gmail.com                                                                                                     0000000000000000                                                    00000000                                                                                                                                                                                                     000003
9                                                                                                                                                                                                                                                                                                                                                                                                         000004
