01REMESSA01COBRANCA       719600141795        NUTRACORPORE COMERCIAL LTDA ME341BANCO ITAU SA  130517                                                                                                                                                                                                                                                                                                      000001
10218572130000164719600141795    00003                        000027750000000000000109                     I013         18051700000000162003410000001N130517100000000000000000000000000000000000000000000000000000000000000100041109024878PAMELA BLESSA                           rua alto das minas, 14                  mandaqui    02423065são paulo     SP                                  00000005 000002
5pam_blessa@hotmail.com                                                                                                  0000000000000000                                                    00000000                                                                                                                                                                                                     000003
9                                                                                                                                                                                                                                                                                                                                                                                                         000004
