01REMESSA01COBRANCA       719600141795        NUTRACORPORE COMERCIAL LTDA ME341BANCO ITAU SA  140517                                                                                                                                                                                                                                                                                                      000001
10218572130000164719600141795    00003                        000027780000000000000109                     I013         19051700000000111773410000001N140517100000000000000000000000000000000000000000000000000000000000000100040746784899Jeferson Barbosa                        Avenida Aclimação, 145                Aclimação 01531001Sâo Paulo     SP                                  00000005 000002
5jef.b.sousa@gmail.com                                                                                                   0000000000000000                                                    00000000                                                                                                                                                                                                     000003
9                                                                                                                                                                                                                                                                                                                                                                                                         000004
