01REMESSA01COBRANCA       719600141795        NUTRACORPORE COMERCIAL LTDA ME341BANCO ITAU SA  210517                                                                                                                                                                                                                                                                                                      000001
10218572130000164719600141795    00003                        000028240000000000000109                     I013         26051700000000191703410000001N210517100000000000000000000000000000000000000000000000000000000000000100021671318870Michael Lisica                          Rua Pan, 335 Apto 34                    Nova Gerty  09572550São Caetano do Sul SP                                  00000005 000002
5Michaellisica@hotmail.com                                                                                               0000000000000000                                                    00000000                                                                                                                                                                                                     000003
9                                                                                                                                                                                                                                                                                                                                                                                                         000004
