01REMESSA01COBRANCA       719600141795        NUTRACORPORE COMERCIAL LTDA ME341BANCO ITAU SA  240517                                                                                                                                                                                                                                                                                                      000001
10218572130000164719600141795    00003                        000028340000000000000109                     I013         29051700000000292503410000001N240517100000000000000000000000000000000000000000000000000000000000000100006382723860Eduardo Balian                          Rua Cervantes, 227                      Vila Prudent03126060São Paulo     SP                                  00000005 000002
5ebalian@yahoo.com                                                                                                       0000000000000000                                                    00000000                                                                                                                                                                                                     000003
9                                                                                                                                                                                                                                                                                                                                                                                                         000004
