01REMESSA01COBRANCA       719600141795        NUTRACORPORE COMERCIAL LTDA ME341BANCO ITAU SA  250517                                                                                                                                                                                                                                                                                                      000001
10218572130000164719600141795    00003                        000028360000000000000109                     I013         30051700000000354603410000001N250517100000000000000000000000000000000000000000000000000000000000000100017409575808Analice Dittrich                        Rua Mendonça Furtado, , 660 São Paulo Granja Viana06706135Cotia          SP                                  00000005 000002
5lopeslice@hotmail.com                                                                                                   0000000000000000                                                    00000000                                                                                                                                                                                                     000003
9                                                                                                                                                                                                                                                                                                                                                                                                         000004
