01REMESSA01COBRANCA       719600141795        NUTRACORPORE COMERCIAL LTDA ME341BANCO ITAU SA  020617                                                                                                                                                                                                                                                                                                      000001
10218572130000164719600141795    00003                        000028510000000000000109                     I013         07061700000000480603410000001N020617100000000000000000000000000000000000000000000000000000000000000100088412180615Cleonice Gontijio Pereira               Rua Ouro Preto, 1143 Apto 304           Santo Agosti30170041Belo Horizonte MG                                  00000005 000002
5cleogontijo@hotmail.com                                                                                                 0000000000000000                                                    00000000                                                                                                                                                                                                     000003
9                                                                                                                                                                                                                                                                                                                                                                                                         000004
