01REMESSA01COBRANCA       719600141795        NUTRACORPORE COMERCIAL LTDA ME341BANCO ITAU SA  050617                                                                                                                                                                                                                                                                                                      000001
10218572130000164719600141795    00003                        000028630000000000000109                     I013         10061700000000280803410000001N050617100000000000000000000000000000000000000000000000000000000000000100004588724908Fábio Luiz Navarro Begossi             Avenida Iguaçu, 811 Apto. 103A         Rebouças   80230020Curitiba       PR                                  00000005 000002
5fabioluiz_93@hotmail.com                                                                                                0000000000000000                                                    00000000                                                                                                                                                                                                     000003
9                                                                                                                                                                                                                                                                                                                                                                                                         000004
